Primeras exploraciones:
…
---
class: inverse, center, middle

## Veamos como se ve *my_iris_tbl*

---
class: inverse, center

```r
my_iris_tbl
```

```
## # A tibble: 150 x 5
##    Sepal.Length Sepal.Width Petal.Length Petal.Width Species
##           <dbl>       <dbl>        <dbl>       <dbl> <chr>  
##  1          5.1         3.5          1.4         0.2 setosa 
##  2          4.9         3            1.4         0.2 setosa 
##  3          4.7         3.2          1.3         0.2 setosa 
##  4          4.6         3.1          1.5         0.2 setosa 
##  5          5           3.6          1.4         0.2 setosa 
##  6          5.4         3.9          1.7         0.4 setosa 
##  7          4.6         3.4          1.4         0.3 setosa 
##  8          5           3.4          1.5         0.2 setosa 
##  9          4.4         2.9          1.4         0.2 setosa 
## 10          4.9         3.1          1.5         0.1 setosa 
## # … with 140 more rows
```
…
---
class: inverse, center

# Vroom 

## ¡Lo mejor de dos mundos!

```r
my_iris_vroom
```

```
## # A tibble: 150 x 5
##    Sepal.Length Sepal.Width Petal.Length Petal.Width Species
##           <dbl>       <dbl>        <dbl>       <dbl> <chr>  
##  1          5.1         3.5          1.4         0.2 setosa 
##  2          4.9         3            1.4         0.2 setosa 
##  3          4.7         3.2          1.3         0.2 setosa 
##  4          4.6         3.1          1.5         0.2 setosa 
##  5          5           3.6          1.4         0.2 setosa 
##  6          5.4         3.9          1.7         0.4 setosa 
##  7          4.6         3.4          1.4         0.3 setosa 
##  8          5           3.4          1.5         0.2 setosa 
##  9          4.4         2.9          1.4         0.2 setosa 
## 10          4.9         3.1          1.5         0.1 setosa 
## # … with 140 more rows
```
…
.left[
### Este paquete leer datos de Excel, en diferentes formatos (xls, xlsx...)
]

---
class: inverse, center

# readxl 

```r
readxl::read_xlsx(path = "data/datasets_clasicos.xlsx")
```

```
## # A tibble: 150 x 5
##    Sepal.Length Sepal.Width Petal.Length Petal.Width Species
##           <dbl>       <dbl>        <dbl>       <dbl> <chr>  
##  1          5.1         3.5          1.4         0.2 setosa 
##  2          4.9         3            1.4         0.2 setosa 
##  3          4.7         3.2          1.3         0.2 setosa 
##  4          4.6         3.1          1.5         0.2 setosa 
##  5          5           3.6          1.4         0.2 setosa 
##  6          5.4         3.9          1.7         0.4 setosa 
##  7          4.6         3.4          1.4         0.3 setosa 
##  8          5           3.4          1.5         0.2 setosa 
##  9          4.4         2.9          1.4         0.2 setosa 
## 10          4.9         3.1          1.5         0.1 setosa 
## # … with 140 more rows
```
-- 
### ¿Qué tal si tengo más de una hoja? 

---
class: inverse, center

# readxl 

```r
readxl::read_xlsx(path = "data/datasets_clasicos.xlsx", 
                  sheet = 1)
```

```
## # A tibble: 150 x 5
##    Sepal.Length Sepal.Width Petal.Length Petal.Width Species
##           <dbl>       <dbl>        <dbl>       <dbl> <chr>  
##  1          5.1         3.5          1.4         0.2 setosa 
##  2          4.9         3            1.4         0.2 setosa 
##  3          4.7         3.2          1.3         0.2 setosa 
##  4          4.6         3.1          1.5         0.2 setosa 
##  5          5           3.6          1.4         0.2 setosa 
##  6          5.4         3.9          1.7         0.4 setosa 
##  7          4.6         3.4          1.4         0.3 setosa 
##  8          5           3.4          1.5         0.2 setosa 
##  9          4.4         2.9          1.4         0.2 setosa 
## 10          4.9         3.1          1.5         0.1 setosa 
## # … with 140 more rows
```
…
# readxl 

```r
readxl::read_xlsx(path = "data/datasets_clasicos.xlsx", 
                  sheet = 2)
```

```
## New names:
## * `` -> ...1
```

```
## # A tibble: 32 x 12
##    ...1          mpg   cyl  disp    hp  drat    wt  qsec    vs    am  gear  carb
##    <chr>       <dbl> <dbl> <dbl> <dbl> <dbl> <dbl> <dbl> <dbl> <dbl> <dbl> <dbl>
##  1 Mazda RX4    21       6  160    110  3.9   2.62  16.5     0     1     4     4
##  2 Mazda RX4 …  21       6  160    110  3.9   2.88  17.0     0     1     4     4
##  3 Datsun 710   22.8     4  108     93  3.85  2.32  18.6     1     1     4     1
##  4 Hornet 4 D…  21.4     6  258    110  3.08  3.22  19.4     1     0     3     1
##  5 Hornet Spo…  18.7     8  360    175  3.15  3.44  17.0     0     0     3     2
##  6 Valiant      18.1     6  225    105  2.76  3.46  20.2     1     0     3     1
##  7 Duster 360   14.3     8  360    245  3.21  3.57  15.8     0     0     3     4
##  8 Merc 240D    24.4     4  147.    62  3.69  3.19  20       1     0     4     2
##  9 Merc 230     22.8     4  141.    95  3.92  3.15  22.9     1     0     4     2
## 10 Merc 280     19.2     6  168.   123  3.92  3.44  18.3     1     0     4     4
## # … with 22 more rows
```

---
class: inverse, center

# readxl 

### También podemos escoger por nombre

```r
readxl::read_xlsx(path = "data/datasets_clasicos.xlsx", 
                  sheet = "USarrests")
```

```
## # A tibble: 50 x 5
##    state       Murder Assault UrbanPop  Rape
##    <chr>        <dbl>   <dbl>    <dbl> <dbl>
##  1 Alabama       13.2     236       58  21.2
##  2 Alaska        10       263       48  44.5
##  3 Arizona        8.1     294       80  31  
##  4 Arkansas       8.8     190       50  19.5
##  5 California     9       276       91  40.6
##  6 Colorado       7.9     204       78  38.7
##  7 Connecticut    3.3     110       77  11.1
##  8 Delaware       5.9     238       72  15.8
##  9 Florida       15.4     335       80  31.9
## 10 Georgia       17.4     211       60  25.8
## # … with 40 more rows
```
…
```r
readxl::read_xlsx(path = "data/datasets_clasicos.xlsx", 
                  sheet = 4)
```

```
## New names:
## * `` -> ...2
## * `` -> ...3
## * `` -> ...4
## * `` -> ...5
```

```
## # A tibble: 51 x 5
##    `#this is a dataset of arrests in the USA` ...2   ...3    ...4     ...5 
##    <chr>                                      <chr>  <chr>   <chr>    <chr>
##  1 state                                      Murder Assault UrbanPop Rape 
##  2 Alabama                                    13.2   236     58       21.2 
##  3 Alaska                                     10     263     48       44.5 
##  4 Arizona                                    8.1    294     80       31   
##  5 Arkansas                                   8.8    190     50       19.5 
##  6 California                                 9      276     91       40.6 
##  7 Colorado                                   7.9    204     78       38.7 
##  8 Connecticut                                3.3    110     77       11.1 
##  9 Delaware                                   5.9    238     72       15.8 
## 10 Florida                                    15.4   335     80       31.9 
## # … with 41 more rows
```
### Se ve mal... 

---
class: inverse, center

### Tenemos que "saltarnos" la primera línea

```r
readxl::read_xlsx(path = "data/datasets_clasicos.xlsx", 
                  sheet = 4, 
                  skip = 1)
```

```
## # A tibble: 50 x 5
##    state       Murder Assault UrbanPop  Rape
##    <chr>        <dbl>   <dbl>    <dbl> <dbl>
##  1 Alabama       13.2     236       58  21.2
##  2 Alaska        10       263       48  44.5
##  3 Arizona        8.1     294       80  31  
##  4 Arkansas       8.8     190       50  19.5
##  5 California     9       276       91  40.6
##  6 Colorado       7.9     204       78  38.7
##  7 Connecticut    3.3     110       77  11.1
##  8 Delaware       5.9     238       72  15.8
##  9 Florida       15.4     335       80  31.9
## 10 Georgia       17.4     211       60  25.8
## # … with 40 more rows
```
…
```
## 
## ℹ Use `spec()` to retrieve the full column specification for this data.
## ℹ Specify the column types or set `show_col_types = FALSE` to quiet this message.
```

```r
my_genes
```

```
## # A tibble: 499 x 7
##    `Gene stable ID` `Chromosome/scaffold name` `Gene start (bp)` `Gene end (bp)`
##    <chr>            <chr>                                  <dbl>           <dbl>
##  1 ENSG00000210049  MT                                       577             647
##  2 ENSG00000211459  MT                                       648            1601
##  3 ENSG00000210077  MT                                      1602            1670
##  4 ENSG00000210082  MT                                      1671            3229
##  5 ENSG00000209082  MT                                      3230            3304
##  6 ENSG00000198888  MT                                      3307            4262
##  7 ENSG00000210100  MT                                      4263            4331
##  8 ENSG00000210107  MT                                      4329            4400
##  9 ENSG00000210112  MT                                      4402            4469
## 10 ENSG00000198763  MT                                      4470            5511
## # … with 489 more rows, and 3 more variables: Gene % GC content <dbl>,
## #   Gene type <chr>, HGNC symbol <chr>
```

---
class: inverse, center

```r
my_genes <- janitor::clean_names(dat = my_genes, 
                                 case = "snake")
my_genes
```

```
## # A tibble: 499 x 7
##    gene_stable_id  chromosome_scaff… gene_start_bp gene_end_bp gene_percent_gc_…
##    <chr>           <chr>                     <dbl>       <dbl>             <dbl>
##  1 ENSG00000210049 MT                          577         647              40.8
##  2 ENSG00000211459 MT                          648        1601              45.5
##  3 ENSG00000210077 MT                         1602        1670              42.0
##  4 ENSG00000210082 MT                         1671        3229              42.8
##  5 ENSG00000209082 MT                         3230        3304              38.7
##  6 ENSG00000198888 MT                         3307        4262              47.7
##  7 ENSG00000210100 MT                         4263        4331              29.0
##  8 ENSG00000210107 MT                         4329        4400              48.6
##  9 ENSG00000210112 MT                         4402        4469              45.6
## 10 ENSG00000198763 MT                         4470        5511              43.0
## # … with 489 more rows, and 2 more variables: gene_type <chr>,
## #   hgnc_symbol <chr>
```
…
```r
my_iris_vroom
```

```
## # A tibble: 150 x 5
##    Sepal.Length Sepal.Width Petal.Length Petal.Width Species
##           <dbl>       <dbl>        <dbl>       <dbl> <chr>  
##  1          5.1         3.5          1.4         0.2 setosa 
##  2          4.9         3            1.4         0.2 setosa 
##  3          4.7         3.2          1.3         0.2 setosa 
##  4          4.6         3.1          1.5         0.2 setosa 
##  5          5           3.6          1.4         0.2 setosa 
##  6          5.4         3.9          1.7         0.4 setosa 
##  7          4.6         3.4          1.4         0.3 setosa 
##  8          5           3.4          1.5         0.2 setosa 
##  9          4.4         2.9          1.4         0.2 setosa 
## 10          4.9         3.1          1.5         0.1 setosa 
## # … with 140 more rows
```
…
```
## Error in load("results/my_iris_vroom.RDS"): bad restore file magic number (file may be corrupted) -- no data loaded
```

---
class: inverse, center

```r
my_iris_vroom_again <- readRDS(file = "results/my_iris_vroom.RDS")
my_iris_vroom_again
```

```
## # A tibble: 150 x 5
##    Sepal.Length Sepal.Width Petal.Length Petal.Width Species
##           <dbl>       <dbl>        <dbl>       <dbl> <chr>  
##  1          5.1         3.5          1.4         0.2 setosa 
##  2          4.9         3            1.4         0.2 setosa 
##  3          4.7         3.2          1.3         0.2 setosa 
##  4          4.6         3.1          1.5         0.2 setosa 
##  5          5           3.6          1.4         0.2 setosa 
##  6          5.4         3.9          1.7         0.4 setosa 
##  7          4.6         3.4          1.4         0.3 setosa 
##  8          5           3.4          1.5         0.2 setosa 
##  9          4.4         2.9          1.4         0.2 setosa 
## 10          4.9         3.1          1.5         0.1 setosa 
## # … with 140 more rows
```
…
