Sesión II: Manipulando datos
…
```
## 
## ℹ Use `spec()` to retrieve the full column specification for this data.
## ℹ Specify the column types or set `show_col_types = FALSE` to quiet this message.
```

---
class: inverse, center, middle

```r
flights 
```

```
## # A tibble: 336,776 x 19
##     year month   day dep_time sched_dep_time dep_delay arr_time sched_arr_time
##    <dbl> <dbl> <dbl>    <dbl>          <dbl>     <dbl>    <dbl>          <dbl>
##  1  2013     1     1      517            515         2      830            819
##  2  2013     1     1      533            529         4      850            830
##  3  2013     1     1      542            540         2      923            850
##  4  2013     1     1      544            545        -1     1004           1022
##  5  2013     1     1      554            600        -6      812            837
##  6  2013     1     1      554            558        -4      740            728
##  7  2013     1     1      555            600        -5      913            854
##  8  2013     1     1      557            600        -3      709            723
##  9  2013     1     1      557            600        -3      838            846
## 10  2013     1     1      558            600        -2      753            745
## # … with 336,766 more rows, and 11 more variables: arr_delay <dbl>,
## #   carrier <chr>, flight <dbl>, tailnum <chr>, origin <chr>, dest <chr>,
## #   air_time <dbl>, distance <dbl>, hour <dbl>, minute <dbl>, time_hour <dttm>
```
…
## Permite escoger algunas variables (columnas)

---
class: inverse, center

# select

```r
flights %>% 
  select(flight, carrier, origin, dest, distance)
```

```
## # A tibble: 336,776 x 5
##    flight carrier origin dest  distance
##     <dbl> <chr>   <chr>  <chr>    <dbl>
##  1   1545 UA      EWR    IAH       1400
##  2   1714 UA      LGA    IAH       1416
##  3   1141 AA      JFK    MIA       1089
##  4    725 B6      JFK    BQN       1576
##  5    461 DL      LGA    ATL        762
##  6   1696 UA      EWR    ORD        719
##  7    507 B6      EWR    FLL       1065
##  8   5708 EV      LGA    IAD        229
##  9     79 B6      JFK    MCO        944
## 10    301 AA      LGA    ORD        733
## # … with 336,766 more rows
```

---
class: inverse, center

```r
flights %>% 
  select(contains("time"))
```

```
## # A tibble: 336,776 x 6
##    dep_time sched_dep_time arr_time sched_arr_time air_time time_hour          
##       <dbl>          <dbl>    <dbl>          <dbl>    <dbl> <dttm>             
##  1      517            515      830            819      227 2013-01-01 10:00:00
##  2      533            529      850            830      227 2013-01-01 10:00:00
##  3      542            540      923            850      160 2013-01-01 10:00:00
##  4      544            545     1004           1022      183 2013-01-01 10:00:00
##  5      554            600      812            837      116 2013-01-01 11:00:00
##  6      554            558      740            728      150 2013-01-01 10:00:00
##  7      555            600      913            854      158 2013-01-01 11:00:00
##  8      557            600      709            723       53 2013-01-01 11:00:00
##  9      557            600      838            846      140 2013-01-01 11:00:00
## 10      558            600      753            745      138 2013-01-01 11:00:00
## # … with 336,766 more rows
```

---
class: inverse, center

```r
flights %>% 
  select_if(is_character)
```

```
## # A tibble: 336,776 x 4
##    carrier tailnum origin dest 
##    <chr>   <chr>   <chr>  <chr>
##  1 UA      N14228  EWR    IAH  
##  2 UA      N24211  LGA    IAH  
##  3 AA      N619AA  JFK    MIA  
##  4 B6      N804JB  JFK    BQN  
##  5 DL      N668DN  LGA    ATL  
##  6 UA      N39463  EWR    ORD  
##  7 B6      N516JB  EWR    FLL  
##  8 EV      N829AS  LGA    IAD  
##  9 B6      N593JB  JFK    MCO  
## 10 AA      N3ALAA  LGA    ORD  
## # … with 336,766 more rows
```
…
### Esto me servirá para hacer resúmenes después. 

---
class: inverse, center

# Agrupamientos

```r
flights %>% 
  group_by(dest)
```

```
## # A tibble: 336,776 x 19
## # Groups:   dest [105]
##     year month   day dep_time sched_dep_time dep_delay arr_time sched_arr_time
##    <dbl> <dbl> <dbl>    <dbl>          <dbl>     <dbl>    <dbl>          <dbl>
##  1  2013     1     1      517            515         2      830            819
##  2  2013     1     1      533            529         4      850            830
##  3  2013     1     1      542            540         2      923            850
##  4  2013     1     1      544            545        -1     1004           1022
##  5  2013     1     1      554            600        -6      812            837
##  6  2013     1     1      554            558        -4      740            728
##  7  2013     1     1      555            600        -5      913            854
##  8  2013     1     1      557            600        -3      709            723
##  9  2013     1     1      557            600        -3      838            846
## 10  2013     1     1      558            600        -2      753            745
## # … with 336,766 more rows, and 11 more variables: arr_delay <dbl>,
## #   carrier <chr>, flight <dbl>, tailnum <chr>, origin <chr>, dest <chr>,
## #   air_time <dbl>, distance <dbl>, hour <dbl>, minute <dbl>, time_hour <dttm>
```

---
class: inverse, center

# Agrupamientos

```r
flights %>% 
  group_by(dest, origin)
```

```
## # A tibble: 336,776 x 19
## # Groups:   dest, origin [224]
##     year month   day dep_time sched_dep_time dep_delay arr_time sched_arr_time
##    <dbl> <dbl> <dbl>    <dbl>          <dbl>     <dbl>    <dbl>          <dbl>
##  1  2013     1     1      517            515         2      830            819
##  2  2013     1     1      533            529         4      850            830
##  3  2013     1     1      542            540         2      923            850
##  4  2013     1     1      544            545        -1     1004           1022
##  5  2013     1     1      554            600        -6      812            837
##  6  2013     1     1      554            558        -4      740            728
##  7  2013     1     1      555            600        -5      913            854
##  8  2013     1     1      557            600        -3      709            723
##  9  2013     1     1      557            600        -3      838            846
## 10  2013     1     1      558            600        -2      753            745
## # … with 336,766 more rows, and 11 more variables: arr_delay <dbl>,
## #   carrier <chr>, flight <dbl>, tailnum <chr>, origin <chr>, dest <chr>,
## #   air_time <dbl>, distance <dbl>, hour <dbl>, minute <dbl>, time_hour <dttm>
```
…
# Puedo usarlas sobre datos agrupados

```r
flights %>% 
  group_by(dest) %>% 
  select(contains("time")) %>% 
  summarise_all(mean, na.rm=TRUE)
```

```
## Adding missing grouping variables: `dest`
```

```
## # A tibble: 105 x 7
##    dest  dep_time sched_dep_time arr_time sched_arr_time air_time
##    <chr>    <dbl>          <dbl>    <dbl>          <dbl>    <dbl>
##  1 ABQ      2006.          2001.    2049.          2278.    249. 
##  2 ACK      1033.          1033.    1145.          1139.     42.1
##  3 ALB      1627.          1610.    1702.          1718.     31.8
##  4 ANC      1635.          1618.    1968           1966.    413. 
##  5 ATL      1293.          1287.    1513.          1529.    113. 
##  6 AUS      1521.          1506.    1614.          1816.    213. 
##  7 AVL      1175.          1169.    1373.          1362.     89.9
##  8 BDL      1490.          1506.    1549.          1610.     25.5
##  9 BGR      1690.          1673.    1715.          1836.     54.1
## 10 BHM      1944.          1909.    2028.          2078.    123. 
## # … with 95 more rows, and 1 more variable: time_hour <dttm>
```
…
```
## Adding missing grouping variables: `origin`, `dest`
```

```
## # A tibble: 224 x 14
## # Groups:   origin [3]
##    origin dest  dep_time_med sched_dep_time_med arr_time_med sched_arr_time_med
##    <chr>  <chr>        <dbl>              <dbl>        <dbl>              <dbl>
##  1 EWR    ALB          1738                1721        1832                1822
##  2 EWR    ANC          1618                1615        1957                1953
##  3 EWR    ATL          1257                1300        1513                1519
##  4 EWR    AUS          1503                1459        1746                1805
##  5 EWR    AVL          1156                1200        1339                1350
##  6 EWR    BDL          1328.               1327        1414.               1422
##  7 EWR    BNA          1306.               1300        1421                1425
##  8 EWR    BOS          1400                1400        1458                1511
##  9 EWR    BQN          2054                2038         105                  42
## 10 EWR    BTV          1231                1209        1316                1320
## # … with 214 more rows, and 8 more variables: air_time_med <dbl>,
## #   time_hour_med <dttm>, dep_time_avg <dbl>, sched_dep_time_avg <dbl>,
## #   arr_time_avg <dbl>, sched_arr_time_avg <dbl>, air_time_avg <dbl>,
## #   time_hour_avg <dttm>
```
…
### n

```r
flights %>% 
  group_by(month, origin, dest) %>% 
  summarize(cuantos = n())
```

```
## `summarise()` has grouped output by 'month', 'origin'. You can override using the `.groups` argument.
```

```
## # A tibble: 2,313 x 4
## # Groups:   month, origin [36]
##    month origin dest  cuantos
##    <dbl> <chr>  <chr>   <int>
##  1     1 EWR    ALB        64
##  2     1 EWR    ATL       362
##  3     1 EWR    AUS        51
##  4     1 EWR    AVL         2
##  5     1 EWR    BDL        37
##  6     1 EWR    BNA       111
##  7     1 EWR    BOS       430
##  8     1 EWR    BQN        31
##  9     1 EWR    BTV       100
## 10     1 EWR    BUF       119
## # … with 2,303 more rows
```
…
### count - datos agrupados

```r
flights %>% 
  group_by(month) %>% 
  count(origin)
```

```
## # A tibble: 36 x 3
## # Groups:   month [12]
##    month origin     n
##    <dbl> <chr>  <int>
##  1     1 EWR     9893
##  2     1 JFK     9161
##  3     1 LGA     7950
##  4     2 EWR     9107
##  5     2 JFK     8421
##  6     2 LGA     7423
##  7     3 EWR    10420
##  8     3 JFK     9697
##  9     3 LGA     8717
## 10     4 EWR    10531
## # … with 26 more rows
```

---
class: inverse, center

#tally

```r
flights %>% 
  group_by(month, origin, dest) %>% 
  tally()
```

```
## # A tibble: 2,313 x 4
## # Groups:   month, origin [36]
##    month origin dest      n
##    <dbl> <chr>  <chr> <int>
##  1     1 EWR    ALB      64
##  2     1 EWR    ATL     362
##  3     1 EWR    AUS      51
##  4     1 EWR    AVL       2
##  5     1 EWR    BDL      37
##  6     1 EWR    BNA     111
##  7     1 EWR    BOS     430
##  8     1 EWR    BQN      31
##  9     1 EWR    BTV     100
## 10     1 EWR    BUF     119
## # … with 2,303 more rows
```
…
```
## Warning in max(air_time, na.rm = TRUE): no non-missing arguments to max;
## returning -Inf
```

```
## `summarise()` has grouped output by 'origin'. You can override using the `.groups` argument.
```

```
## # A tibble: 224 x 6
## # Groups:   origin [3]
##    origin dest  min_airtime max_airtime std_dev_airtime cuantos
##    <chr>  <chr>       <dbl>       <dbl>           <dbl>   <int>
##  1 EWR    ALB            24          50            3.08     439
##  2 EWR    ANC           388         434           14.7        8
##  3 EWR    ATL            88         176            9.99    5022
##  4 EWR    AUS           174         301           17.9      968
##  5 EWR    AVL            76         119            7.45     265
##  6 EWR    BDL            20          56            3.29     443
##  7 EWR    BNA            70         176           10.9     2336
##  8 EWR    BOS            30         112            4.92    5327
##  9 EWR    BQN           173         231            8.88     297
## 10 EWR    BTV            34          69            3.67     931
## # … with 214 more rows
```
…
---
class: inverse, center, middle

# Mutate

## Quiero saber el tiempo que estaba esperado para los vuelos

```r
flights %>% 
  select(carrier, flight, air_time, dep_delay, arr_delay)
```

```
## # A tibble: 336,776 x 5
##    carrier flight air_time dep_delay arr_delay
##    <chr>    <dbl>    <dbl>     <dbl>     <dbl>
##  1 UA        1545      227         2        11
##  2 UA        1714      227         4        20
##  3 AA        1141      160         2        33
##  4 B6         725      183        -1       -18
##  5 DL         461      116        -6       -25
##  6 UA        1696      150        -4        12
##  7 B6         507      158        -5        19
##  8 EV        5708       53        -3       -14
##  9 B6          79      140        -3        -8
## 10 AA         301      138        -2         8
## # … with 336,766 more rows
```
…
--

### ¡Tengo que generar una nueva variable!

---
class: inverse, center, middle

```r
flights %>% 
  select(carrier, flight, air_time, dep_delay, arr_delay) %>% 
  mutate(expected_airtime = air_time - dep_delay - arr_delay)
```

```
## # A tibble: 336,776 x 6
##    carrier flight air_time dep_delay arr_delay expected_airtime
##    <chr>    <dbl>    <dbl>     <dbl>     <dbl>            <dbl>
##  1 UA        1545      227         2        11              214
##  2 UA        1714      227         4        20              203
##  3 AA        1141      160         2        33              125
##  4 B6         725      183        -1       -18              202
##  5 DL         461      116        -6       -25              147
##  6 UA        1696      150        -4        12              142
##  7 B6         507      158        -5        19              144
##  8 EV        5708       53        -3       -14               70
##  9 B6          79      140        -3        -8              151
## 10 AA         301      138        -2         8              132
## # … with 336,766 more rows
```

---
class: inverse, center, middle

Tambien puedo hacer variables intermedias

```
## # A tibble: 336,776 x 7
##    carrier flight air_time dep_delay arr_delay total_delay expected_airtime
##    <chr>    <dbl>    <dbl>     <dbl>     <dbl>       <dbl>            <dbl>
##  1 UA        1545      227         2        11          13              214
##  2 UA        1714      227         4        20          24              203
##  3 AA        1141      160         2        33          35              125
##  4 B6         725      183        -1       -18         -19              202
##  5 DL         461      116        -6       -25         -31              147
##  6 UA        1696      150        -4        12           8              142
##  7 B6         507      158        -5        19          14              144
##  8 EV        5708       53        -3       -14         -17               70
##  9 B6          79      140        -3        -8         -11              151
## 10 AA         301      138        -2         8           6              132
## # … with 336,766 more rows
```
…
# case_when para condicionales

Quiero una variable que diga si se adelantó o se atrasó 

```r
my_flights
```

```
## # A tibble: 336,776 x 22
##     year month   day dep_time sched_dep_time dep_delay arr_time sched_arr_time
##    <dbl> <dbl> <dbl>    <dbl>          <dbl>     <dbl>    <dbl>          <dbl>
##  1  2013     1     1      517            515         2      830            819
##  2  2013     1     1      533            529         4      850            830
##  3  2013     1     1      542            540         2      923            850
##  4  2013     1     1      544            545        -1     1004           1022
##  5  2013     1     1      554            600        -6      812            837
##  6  2013     1     1      554            558        -4      740            728
##  7  2013     1     1      555            600        -5      913            854
##  8  2013     1     1      557            600        -3      709            723
##  9  2013     1     1      557            600        -3      838            846
## 10  2013     1     1      558            600        -2      753            745
## # … with 336,766 more rows, and 14 more variables: arr_delay <dbl>,
## #   carrier <chr>, flight <dbl>, tailnum <chr>, origin <chr>, dest <chr>,
## #   air_time <dbl>, distance <dbl>, hour <dbl>, minute <dbl>, time_hour <dttm>,
## #   total_delay <dbl>, expected_airtime <dbl>, net_gainloss <chr>
```

---
class: inverse, center, middle

# case_when para condicionales

Quiero una variable que diga si se adelantó o se atrasó 

```r
my_flights %>% 
  select(carrier, flight, air_time, expected_airtime, total_delay, net_gainloss)
```

```
## # A tibble: 336,776 x 6
##    carrier flight air_time expected_airtime total_delay net_gainloss
##    <chr>    <dbl>    <dbl>            <dbl>       <dbl> <chr>       
##  1 UA        1545      227              214          13 retraso     
##  2 UA        1714      227              203          24 retraso     
##  3 AA        1141      160              125          35 retraso     
##  4 B6         725      183              202         -19 adelanto    
##  5 DL         461      116              147         -31 adelanto    
##  6 UA        1696      150              142           8 retraso     
##  7 B6         507      158              144          14 retraso     
##  8 EV        5708       53               70         -17 adelanto    
##  9 B6          79      140              151         -11 adelanto    
## 10 AA         301      138              132           6 retraso     
## # … with 336,766 more rows
```
…
---
class: inverse, center, middle

# tidyr::gather

```r
my_data_gather <-
my_data %>% 
  gather(-"student", key = "materia", value = "calificacion")

my_data_gather
```

```
## # A tibble: 40 x 3
##    student    materia calificacion
##    <chr>      <chr>          <dbl>
##  1 STUDENT_01 fisica             6
##  2 STUDENT_02 fisica             5
##  3 STUDENT_03 fisica             6
##  4 STUDENT_04 fisica             6
##  5 STUDENT_05 fisica             6
##  6 STUDENT_06 fisica             5
##  7 STUDENT_07 fisica             7
##  8 STUDENT_08 fisica             6
##  9 STUDENT_09 fisica             7
## 10 STUDENT_10 fisica             6
## # … with 30 more rows
```
…
### tidyr::pivot_long (*SOLO DE LA VERSIÓN 1.0 DE TIDYR EN ADELANTE*)

```r
my_data_pivot_longer <-
  my_data %>% 
  tidyr::pivot_longer(cols = -"student", 
                      names_to = "materia", 
                      values_to = "calificacion")

my_data_pivot_longer
```

```
## # A tibble: 40 x 3
##    student    materia     calificacion
##    <chr>      <chr>              <dbl>
##  1 STUDENT_01 fisica                 6
##  2 STUDENT_01 quimica               10
##  3 STUDENT_01 matematicas            5
##  4 STUDENT_01 biologia               7
##  5 STUDENT_02 fisica                 5
##  6 STUDENT_02 quimica               10
##  7 STUDENT_02 matematicas            8
##  8 STUDENT_02 biologia              10
##  9 STUDENT_03 fisica                 6
## 10 STUDENT_03 quimica               10
## # … with 30 more rows
```
…
