Ejercicio final: Juegos Olímpicos
…
En este ejercicio vamos a trabajar con los datos de resultados de Juegos olímpicos (hasta 2016), obtenidos de:

https://github.com/rfordatascience/tidytuesday/blob/master/data/2024/2024-08-06/readme.md

1) Leer datos:

Los datos se leen directamente de esta liga

https://raw.githubusercontent.com/rfordatascience/tidytuesday/master/data/2024/2024-08-06/olympics.csv’

Obteniendo el siguiente dataset:

print(olympics)

# A tibble: 271,116 × 15
      id name     sex     age height weight team  noc   games  year season city 
   <dbl> <chr>    <chr> <dbl>  <dbl>  <dbl> <chr> <chr> <chr> <dbl> <chr>  <chr>
 1     1 A Dijia… M        24    180     80 China CHN   1992…  1992 Summer Barc…
 2     2 A Lamusi M        23    170     60 China CHN   2012…  2012 Summer Lond…
 3     3 Gunnar … M        24     NA     NA Denm… DEN   1920…  1920 Summer Antw…
 4     4 Edgar L… M        34     NA     NA Denm… DEN   1900…  1900 Summer Paris
 5     5 Christi… F        21    185     82 Neth… NED   1988…  1988 Winter Calg…
 6     5 Christi… F        21    185     82 Neth… NED   1988…  1988 Winter Calg…
 7     5 Christi… F        25    185     82 Neth… NED   1992…  1992 Winter Albe…
 8     5 Christi… F        25    185     82 Neth… NED   1992…  1992 Winter Albe…
 9     5 Christi… F        27    185     82 Neth… NED   1994…  1994 Winter Lill…
10     5 Christi… F        27    185     82 Neth… NED   1994…  1994 Winter Lill…
# ℹ 271,106 more rows
# ℹ 3 more variables: sport <chr>, event <chr>, medal <chr>

2) Explorar los juegos de verano

Solo queremos trabajar con resultados de juegos de verano (Summer)

# A tibble: 222,552 × 15
      id name     sex     age height weight team  noc   games  year season city 
   <dbl> <chr>    <chr> <dbl>  <dbl>  <dbl> <chr> <chr> <chr> <dbl> <chr>  <chr>
 1     1 "A Diji… M        24    180   80   China CHN   1992…  1992 Summer Barc…
 2     2 "A Lamu… M        23    170   60   China CHN   2012…  2012 Summer Lond…
 3     3 "Gunnar… M        24     NA   NA   Denm… DEN   1920…  1920 Summer Antw…
 4     4 "Edgar … M        34     NA   NA   Denm… DEN   1900…  1900 Summer Paris
 5     8 "Cornel… F        18    168   NA   Neth… NED   1932…  1932 Summer Los …
 6     8 "Cornel… F        18    168   NA   Neth… NED   1932…  1932 Summer Los …
 7    10 "Einar … M        26     NA   NA   Finl… FIN   1952…  1952 Summer Hels…
 8    12 "Jyri T… M        31    172   70   Finl… FIN   2000…  2000 Summer Sydn…
 9    13 "Minna … F        30    159   55.5 Finl… FIN   1996…  1996 Summer Atla…
10    13 "Minna … F        34    159   55.5 Finl… FIN   2000…  2000 Summer Sydn…
# ℹ 222,542 more rows
# ℹ 3 more variables: sport <chr>, event <chr>, medal <chr>
…
